"ID","OWNERID","ISDELETED","NAME","CREATEDDATE","CREATEDBYID","LASTMODIFIEDDATE","LASTMODIFIEDBYID","SYSTEMMODSTAMP","LASTVIEWEDDATE","LASTREFERENCEDDATE"
"a0Pg0000000Z8t5EAC","005b0000000FHsIAAW","false","OTC","2013-06-20T11:44:20.000Z","005b0000000FHsIAAW","2013-06-20T11:44:20.000Z","005b0000000FHsIAAW","2013-06-20T11:44:20.000Z","2013-06-20T11:44:20.000Z","2013-06-20T11:44:20.000Z"
"a0Pg0000000Z8t0EAC","005b0000000FHsIAAW","false","Pharmacist","2013-06-20T11:44:15.000Z","005b0000000FHsIAAW","2013-06-20T11:44:15.000Z","005b0000000FHsIAAW","2013-06-20T11:44:15.000Z","2013-06-20T11:44:15.000Z","2013-06-20T11:44:15.000Z"
"a0Pg0000000Z8svEAC","005b0000000FHsIAAW","false","PharmacyOwner","2013-06-20T11:44:10.000Z","005b0000000FHsIAAW","2013-06-20T11:44:10.000Z","005b0000000FHsIAAW","2013-06-20T11:44:10.000Z","2013-06-20T11:44:10.000Z","2013-06-20T11:44:10.000Z"
"a0Pg0000000Z8tAEAS","005b0000000FHsIAAW","false","Beauty","2013-06-20T11:44:24.000Z","005b0000000FHsIAAW","2013-06-20T11:44:24.000Z","005b0000000FHsIAAW","2013-06-20T11:44:24.000Z","2013-06-20T11:44:25.000Z","2013-06-20T11:44:25.000Z"
